{
    "id": "2en",
    "start_time": 1625735789,
    "title": "Sorti de la premiere version du projet Iuristus",
    "article_slug": "premiere-sortie-du-mvp",
    "lang": "fr",
    "articles_slug": {
        "en": "first-release-of-mvp",
        "fr": "premiere-sortie-du-mvp"
    },
    "langs":  ["en", "fr"],
    "project": {
        "id": "pj1",
        "name": "Iuristus",
        "links": {
            "website": "https://iuristus.com",
            "github": "https://github.com/iuristus",
            "gitlab": "https://gitlab.com/iuristus",
            "facebook": "https://facebook.com/iuristus",
            "twitter": "https://twitter.com/iuritus",
            "linkedin": "https://linkedin.com/iuristus",
            "mail": "iuritus@gmail.com"
        }
    },
    "abstract": "Curabitur ut augue quis orci finibus pharetra a vel neque. Nullam sit amet ligula eu ipsum placerat blandit eget at nibh. Mauris ullamcorper ullamcorper metus id lobortis. Nullam tristique volutpat orci, eget molestie mauris convallis non. Aenean vitae dui nec ex volutpat sagittis. Suspendisse efficitur dignissim justo gravida suscipit. In fringilla ex et tellus tincidunt, vel dignissim tortor luctus. Mauris tempus urna magna, vel imperdiet tellus venenatis eu. Ut semper faucibus nulla, et fringilla justo posuere et. Pellentesque non lacus rhoncus, dapibus nisl at, porttitor tortor. Aliquam erat volutpat. Aenean sit amet erat ipsum. Donec fringilla diam at elementum ultrices. Praesent lacinia blandit eros, vel pretium tortor venenatis quis.",
    "article": "Curabitur ut augue quis orci finibus pharetra a vel neque. Nullam sit amet ligula eu ipsum placerat blandit eget at nibh. Mauris ullamcorper ullamcorper metus id lobortis. Nullam tristique volutpat orci, eget molestie mauris convallis non. Aenean vitae dui nec ex volutpat sagittis. Suspendisse efficitur dignissim justo gravida suscipit. In fringilla ex et tellus tincidunt, vel dignissim tortor luctus. Mauris tempus urna magna, vel imperdiet tellus venenatis eu. Ut semper faucibus nulla, et fringilla justo posuere et. Pellentesque non lacus rhoncus, dapibus nisl at, porttitor tortor. Aliquam erat volutpat. Aenean sit amet erat ipsum. Donec fringilla diam at elementum ultrices. Praesent lacinia blandit eros, vel pretium tortor venenatis quis. Curabitur ut augue quis orci finibus pharetra a vel neque. Nullam sit amet ligula eu ipsum placerat blandit eget at nibh. Mauris ullamcorper ullamcorper metus id lobortis. Nullam tristique volutpat orci, eget molestie mauris convallis non. Aenean vitae dui nec ex volutpat sagittis. Suspendisse efficitur dignissim justo gravida suscipit. In fringilla ex et tellus tincidunt, vel dignissim tortor luctus. Mauris tempus urna magna, vel imperdiet tellus venenatis eu. Ut semper faucibus nulla, et fringilla justo posuere et. Pellentesque non lacus rhoncus, dapibus nisl at, porttitor tortor. Aliquam erat volutpat. Aenean sit amet erat ipsum. Donec fringilla diam at elementum ultrices. Praesent lacinia blandit eros, vel pretium tortor venenatis quis. Curabitur ut augue quis orci finibus pharetra a vel neque. Nullam sit amet ligula eu ipsum placerat blandit eget at nibh. Mauris ullamcorper ullamcorper metus id lobortis. Nullam tristique volutpat orci, eget molestie mauris convallis non. Aenean vitae dui nec ex volutpat sagittis. Suspendisse efficitur dignissim justo gravida suscipit. In fringilla ex et tellus tincidunt, vel dignissim tortor luctus. Mauris tempus urna magna, vel imperdiet tellus venenatis eu. Ut semper faucibus nulla, et fringilla justo posuere et. Pellentesque non lacus rhoncus, dapibus nisl at, porttitor tortor. Aliquam erat volutpat. Aenean sit amet erat ipsum. Donec fringilla diam at elementum ultrices. Praesent lacinia blandit eros, vel pretium tortor venenatis quis."
}