<svg width="134" height="134" viewBox="0 0 134 134" fill="none" xmlns="http://www.w3.org/2000/svg">
<path d="M81.0196 37.6775C98.9579 31.46 116.732 24.0717 132.006 12.795C133.089 11.9949 134.054 13.959 133.998 15.3047C133.434 28.6431 132.754 42.4477 126.739 54.3661C121.412 64.9209 112.214 73.1684 101.915 78.9731C91.6151 84.7778 80.2013 88.3141 68.7421 91.2236C55.745 94.5236 42.5707 97.0705 29.4161 99.673C25.2872 100.49 21.1075 101.329 17.3206 103.166C13.5337 105.003 10.1208 107.978 8.6544 111.923C12.3578 112.574 14.842 108.356 18.012 106.333C21.2605 104.26 25.4208 104.538 29.2582 104.889C32.2919 105.166 35.3256 105.443 38.3593 105.721C39.085 105.787 39.9173 105.917 40.2963 106.539C40.7066 107.213 40.3548 108.082 39.9502 108.759C37.0171 113.668 31.2165 116.711 25.5104 116.335C21.27 116.055 17.2193 114.055 12.9732 114.229C8.63426 114.406 4.48004 117.049 2.48183 120.904C1.95479 121.921 0.197209 121.196 0.0252016 120.063C-0.146806 118.931 0.59522 117.889 1.23127 116.937C5.48715 110.563 6.31408 102.038 3.36236 94.9654C0.62961 88.4176 3.07634 80.8188 6.77089 74.7614C10.4654 68.704 15.3976 63.3739 18.2608 56.882C18.7122 55.8585 20.2916 55.8379 21.1211 56.5884C21.9506 57.339 22.2098 58.5198 22.3852 59.6246C24.2983 71.6743 21.2892 84.4322 14.1929 94.3569C11.2359 98.4924 7.42498 102.638 7.45869 107.722C14.2911 102.839 18.5087 95.1368 21.8733 87.4428C25.2379 79.7487 28.0418 71.6864 32.9929 64.9037C38.5098 57.3458 46.4141 51.8087 54.8142 47.686C63.2143 43.5633 72.1784 40.7419 81.0196 37.6775V37.6775ZM131.093 17.1274C115.608 27.7904 98.0068 34.9712 80.2302 41.0921C72.1657 43.869 64.0031 46.4572 56.3307 50.1831C48.6583 53.909 41.4193 58.8627 36.2039 65.6116C29.6264 74.1232 26.7109 84.8271 21.8641 94.4301C23.7852 93.026 25.7062 91.6219 27.6272 90.2178C28.2612 89.7544 28.9539 89.2708 29.7392 89.2714C30.5245 89.272 31.3419 90.0243 31.0906 90.7682C30.9746 91.1117 30.6741 91.3542 30.3881 91.5769C27.4697 93.8494 24.5513 96.1219 21.633 98.3944C39.4296 94.5846 57.3852 91.4002 74.8878 86.411C83.7501 83.8848 92.5357 80.8754 100.591 76.3992C108.646 71.9229 115.983 65.903 121.05 58.2056C128.904 46.2739 130.71 31.407 131.093 17.1274V17.1274ZM11.404 87.3879C9.93712 90.5502 9.04509 93.978 8.7845 97.4542C12.2717 92.2327 15.6687 86.8705 17.7498 80.9465C19.9968 74.5503 20.636 67.5964 19.5927 60.8978C17.6649 64.6178 15.0714 67.9427 12.6066 71.3308C10.1417 74.719 7.76676 78.2406 6.36241 82.1882C4.95806 86.1357 4.598 90.5952 6.16507 94.481C6.70236 91.3425 7.6816 88.2799 9.0649 85.4118C9.43138 84.652 10.0286 83.789 10.8674 83.8786C11.5615 83.9528 12.0152 84.7071 12.0183 85.4051C12.0213 86.1031 11.6978 86.7547 11.404 87.3879H11.404ZM36.468 108.561C34.6921 108.588 32.9143 108.481 31.1545 108.242C29.9676 108.081 28.7891 107.859 27.5994 107.721C25.6481 107.494 23.6501 107.494 21.7429 107.965C19.8357 108.436 18.0182 109.402 16.7309 110.886C17.8365 110.758 18.9421 110.63 20.0476 110.502C20.8643 110.408 21.7539 110.329 22.4493 110.767C23.1446 111.206 23.3845 112.388 22.6818 112.815C25.1168 113.623 27.8044 113.652 30.2561 112.895C32.7079 112.139 34.912 110.601 36.468 108.561Z" fill="white"/>
<path d="M111.32 44.1742C109.371 47.26 107.548 50.425 105.856 53.6586C110.155 51.8606 114.342 49.7932 118.383 47.4725C118.863 47.1969 119.357 46.912 119.906 46.8385C120.454 46.7651 121.078 46.957 121.348 47.4402C121.606 47.9005 121.472 48.5002 121.158 48.9245C120.845 49.3488 120.384 49.635 119.932 49.9068C115.774 52.4076 111.416 54.5766 106.914 56.3864C105.828 56.8232 104.538 57.2251 103.543 56.6067C102.951 56.2386 102.264 56.8818 101.831 57.4278C100.231 59.4453 98.1173 61.0526 95.7457 62.0564C94.8481 62.4363 94.1481 63.1577 93.4537 63.8417C92.7592 64.5256 92.0083 65.2113 91.0731 65.4859C90.1379 65.7605 88.9713 65.4926 88.5086 64.6347C88.2097 64.0806 87.3725 64.5004 86.9215 64.9398C86.236 65.6076 85.4847 66.2481 84.5794 66.5583C83.674 66.8684 82.5794 66.7859 81.8805 66.132C81.7276 65.9889 81.4801 66.1062 81.3157 66.236C80.5035 66.877 79.8951 67.7532 79.0557 68.358C78.2163 68.9629 76.971 69.2276 76.1871 68.5524C75.8783 68.2865 75.6844 67.9091 75.5606 67.5208C75.3038 66.7148 75.3638 65.7363 75.9716 65.1479C76.5794 64.5596 77.7974 64.668 78.0856 65.4633C78.7977 64.4892 79.5551 63.4767 80.6456 62.9601C81.7361 62.4434 83.2585 62.6232 83.86 63.6693C84.6171 63.2922 85.1909 62.6381 85.7888 62.0398C86.3867 61.4415 87.0716 60.8629 87.9038 60.7117C88.736 60.5605 89.7286 60.9999 89.9091 61.8263C90.0135 62.3043 90.6915 62.4391 91.1132 62.191C91.535 61.9429 91.761 61.4714 91.9869 61.0373C92.2128 60.6033 92.5004 60.1481 92.9646 59.9933C96.7884 58.7181 99.8384 55.7706 102.237 52.5307C104.635 49.2908 106.511 45.693 108.857 42.4149C109.174 41.9714 109.512 41.5225 109.979 41.2414C110.447 40.9602 111.078 40.883 111.526 41.1938C111.98 41.509 112.126 42.1383 112.023 42.6819C111.92 43.2255 111.615 43.7063 111.32 44.1742V44.1742Z" fill="white"/>
<path d="M58.6504 75.5288C57.8924 76.2583 56.7136 76.8081 55.8145 76.2618C55.2617 75.9259 54.9857 75.2451 54.9964 74.5983C55.0071 73.9515 55.2637 73.3333 55.5758 72.7666C56.0535 71.8992 56.6715 71.1093 57.3986 70.437C57.959 69.9187 58.6548 69.448 59.4164 69.4983C60.1781 69.5485 60.8927 70.3731 60.5698 71.0647C60.4695 71.2795 60.717 71.5248 60.9539 71.5167C61.1908 71.5085 61.3895 71.3435 61.5652 71.1843C65.2185 67.8728 67.6613 63.4671 70.0378 59.1467C71.9849 55.6068 73.932 52.067 75.8792 48.5271C76.3602 47.6527 77.0637 46.6511 78.0581 46.7355C78.8448 46.8022 79.4132 47.5903 79.5064 48.3744C79.5996 49.1584 79.3341 49.9358 79.0725 50.6808C77.2607 55.8413 75.4489 61.0017 73.6371 66.1621C73.3336 67.0266 73.0262 67.9502 73.238 68.8417C73.3856 69.4631 73.1024 70.1633 72.5642 70.5073C72.026 70.8512 71.2716 70.8142 70.7697 70.4193C69.8943 69.7304 70.0029 68.3886 70.2605 67.3049C70.7193 65.3742 71.3837 63.4994 72.0468 61.629C69.8157 65.5268 67.5429 69.4793 64.3307 72.6181C63.2516 73.6725 61.8888 74.6857 60.3899 74.5134C59.6982 74.4339 59.1521 75.046 58.6504 75.5288Z" fill="white"/>
<path d="M36.6581 78.3887C35.9972 78.8649 36.0227 79.9715 35.3221 80.3869C34.6161 80.8054 33.6619 80.1284 33.5178 79.3204C33.3738 78.5125 33.7795 77.7129 34.2311 77.0276C34.6239 76.4316 35.0737 75.8541 35.6708 75.463C36.2679 75.0718 37.0372 74.8896 37.7096 75.1292C38.8281 75.5276 39.2655 76.8468 39.5569 77.9978C39.8116 79.0039 40.0664 80.0101 40.3211 81.0162C43.2177 73.6715 48.0472 67.2395 53.37 61.4084C55.0757 59.5397 56.8579 57.7055 58.9785 56.3255C59.4629 56.0102 59.9855 55.7124 60.5614 55.6638C61.1373 55.6152 61.7775 55.8829 61.9925 56.4193C62.1761 56.877 62.0092 57.4135 61.7066 57.8028C61.404 58.1921 60.9833 58.4684 60.583 58.7563C59.6545 59.4239 58.7992 60.1875 57.9664 60.9712C51.5074 67.0492 46.2964 74.4478 42.7492 82.5767C42.4497 83.2631 42.1533 83.9683 41.6551 84.5274C41.1568 85.0865 40.4066 85.4821 39.6691 85.3519C38.411 85.1298 37.8836 83.6477 37.5937 82.4034C37.2818 81.0652 36.9699 79.727 36.6581 78.3887V78.3887Z" fill="white"/>
</svg>
